{
    "codigoEstado": 200,
    "respuesta": { 
        "datos": [
            {
                "_id": "5fc01f207b51d43c40324572",
                "traducciones": [
                    {
                        "tituloCorto": "NE L'ABANDONNEZ PAS",
                        "titulo": "NE L'ABANDONNEZ PAS"
                    }
                ],
                "adjuntos": [
                    {
                        "tipo": {
                            "codigo": "CATALB_1"
                        },
                        "portada": {
                            "_id": "5f6cb24f0dee2520a4adf62f",
                            "catalogoMedia": {
                                "codigo": "CATMED_3"
                            },
                            "traducciones": [
                                {
                                    "_id": "5f6cb24b0dee2520a4adf62b",
                                    "descripcion": "imágenes proyectos y noticias"
                                }
                            ],
                            "principal": {
                                "_id": "5f6cb24f0dee2520a4adf62d",
                                "url": "https://d3ubht94yroq8c.cloudfront.net/general/5bab1b47-3a75-4e41-9873-8a802133e99a.jpg",
                                "fileDefault": true,
                                "tipo": {
                                    "codigo": "CATTIPMED_1"
                                },
                                "fechaActualizacion": "2020-08-31T14:50:55.464Z"
                            },
                            "fechaCreacion": "2020-08-31T14:50:55.477Z",
                            "fechaActualizacion": "2020-08-31T14:50:55.477Z"
                        }
                    }
                ],
                "perfil": {
                    "_id": "5f5babc6b0530486e7def538",
                    "nombreContacto": "churos",
                    "nombre": "Andre Montoya"
                },
                "fechaCreacion": "2020-08-31T21:33:22.154Z",
                "fechaActualizacion": "2020-08-31T21:33:22.142Z",
                "estado": {
                    "codigo": "EST_110"
                },
                "actualizado": false
            },
            {
                "_id": "000000000000000000000000",
                "traducciones": [
                    {
                        "tituloCorto": "The sand disappears",
                        "titulo": "Proyecto 12"
                    }
                ],
                "adjuntos": [
                    {
                        "tipo": {
                            "codigo": "CATALB_1"
                        },
                        "portada": {
                            "_id": "5f6cb24f0dee2520a4adf62f",
                            "catalogoMedia": {
                                "codigo": "CATMED_3"
                            },
                            "traducciones": [
                                {
                                    "_id": "5f6cb24b0dee2520a4adf62b",
                                    "descripcion": "imágenes proyectos y noticias"
                                }
                            ],
                            "principal": {
                                "_id": "5f6cb24f0dee2520a4adf62d",
                                "url": "https://d3ubht94yroq8c.cloudfront.net/general/d6c1ee69-a972-4d7c-98e4-487033efaab6.jpg",
                                "fileDefault": true,
                                "tipo": {
                                    "codigo": "CATTIPMED_1"
                                },
                                "fechaActualizacion": "2020-09-24T14:50:55.464Z"
                            },
                            "fechaCreacion": "2020-09-24T14:50:55.477Z",
                            "fechaActualizacion": "2020-09-24T14:50:55.477Z"
                        }
                    }
                ],
                "perfil": {
                    "_id": "5f5babc6b0530486e7def538",
                    "nombreContacto": "churos",
                    "nombre": "Andre Montoya"
                },
                "fechaCreacion": "2020-09-03T21:33:22.154Z",
                "fechaActualizacion": "2020-09-03T21:33:22.142Z",
                "estado": {
                    "codigo": "EST_110"
                },
                "actualizado": false
            },
            {
                "_id": "5fc01f207b51d43c40324572",
                "traducciones": [
                    {
                        "tituloCorto": "Menaje sostenible",
                        "titulo": "Proyecto 12"
                    }
                ],
                "adjuntos": [
                    {
                        "tipo": {
                            "codigo": "CATALB_1"
                        },
                        "portada": {
                            "_id": "5f6cb24f0dee2520a4adf62f",
                            "catalogoMedia": {
                                "codigo": "CATMED_3"
                            },
                            "traducciones": [
                                {
                                    "_id": "5f6cb24b0dee2520a4adf62b",
                                    "descripcion": "imágenes proyectos y noticias"
                                }
                            ],
                            "principal": {
                                "_id": "5f6cb24f0dee2520a4adf62d",
                                "url": "https://d3ubht94yroq8c.cloudfront.net/general/9d7f9c07-4c94-49c4-bd53-5996e23ecabc.jpg",
                                "fileDefault": true,
                                "tipo": {
                                    "codigo": "CATTIPMED_1"
                                },
                                "fechaActualizacion": "2020-09-24T14:50:55.464Z"
                            },
                            "fechaCreacion": "2020-09-02T14:50:55.477Z",
                            "fechaActualizacion": "2020-09-02T14:50:55.477Z"
                        }
                    }
                ],
                "perfil": {
                    "_id": "5f5babc6b0530486e7def538",
                    "nombreContacto": "churos",
                    "nombre": "Andre Montoya"
                },
                "fechaCreacion": "2020-09-02T21:33:22.154Z",
                "fechaActualizacion": "2020-09-02T21:33:22.142Z",
                "estado": {
                    "codigo": "EST_110"
                },
                "actualizado": false
            },
            {
                "_id": "5fc01f207b51d43c40324572",
                "traducciones": [
                    {
                        "tituloCorto": "proteggiamo le api",
                        "titulo": "Proyecto 12"
                    }
                ],
                "adjuntos": [
                    {
                        "tipo": {
                            "codigo": "CATALB_1"
                        },
                        "portada": {
                            "_id": "5f6cb24f0dee2520a4adf62f",
                            "catalogoMedia": {
                                "codigo": "CATMED_3"
                            },
                            "traducciones": [
                                {
                                    "_id": "5f6cb24b0dee2520a4adf62b",
                                    "descripcion": "imágenes proyectos y noticias"
                                }
                            ],
                            "principal": {
                                "_id": "5f6cb24f0dee2520a4adf62d",
                                "url": "https://d3ubht94yroq8c.cloudfront.net/general/cff5ce48-fba3-42fa-a493-3c21b2d1f29b.jpg",
                                "fileDefault": true,
                                "tipo": {
                                    "codigo": "CATTIPMED_1"
                                },
                                "fechaActualizacion": "2020-09-24T14:50:55.464Z"
                            },
                            "fechaCreacion": "2020-09-24T14:50:55.477Z",
                            "fechaActualizacion": "2020-09-24T14:50:55.477Z"
                        }
                    }
                ],
                "perfil": {
                    "_id": "5f5babc6b0530486e7def538",
                    "nombreContacto": "churos",
                    "nombre": "Andre Montoya"
                },
                "fechaCreacion": "2020-04-06T21:33:22.154Z",
                "fechaActualizacion": "2020-04-06T21:33:22.142Z",
                "estado": {
                    "codigo": "EST_110"
                },
                "actualizado": false
            },
            {
                "_id": "5fc01f207b51d43c40324572",
                "traducciones": [
                    {
                        "tituloCorto": "Eduação na África",
                        "titulo": "Proyecto 12"
                    }
                ],
                "adjuntos": [
                    {
                        "tipo": {
                            "codigo": "CATALB_1"
                        },
                        "portada": {
                            "_id": "5f6cb24f0dee2520a4adf62f",
                            "catalogoMedia": {
                                "codigo": "CATMED_3"
                            },
                            "traducciones": [
                                {
                                    "_id": "5f6cb24b0dee2520a4adf62b",
                                    "descripcion": "imágenes proyectos y noticias"
                                }
                            ],
                            "principal": {
                                "_id": "5f6cb24f0dee2520a4adf62d",
                                "url": "https://d3ubht94yroq8c.cloudfront.net/general/c1ddcd12-a89d-4cba-8e45-87f77087a8b0.jpg",
                                "fileDefault": true,
                                "tipo": {
                                    "codigo": "CATTIPMED_1"
                                },
                                "fechaActualizacion": "2020-09-24T14:50:55.464Z"
                            },
                            "fechaCreacion": "2020-09-24T14:50:55.477Z",
                            "fechaActualizacion": "2020-09-24T14:50:55.477Z"
                        }
                    }
                ],
                "perfil": {
                    "_id": "5f5babc6b0530486e7def538",
                    "nombreContacto": "churos",
                    "nombre": "Andre Montoya"
                },
                "fechaCreacion": "2020-09-22T21:33:22.154Z",
                "fechaActualizacion": "2020-09-22T21:33:22.142Z",
                "estado": {
                    "codigo": "EST_110"
                },
                "actualizado": false
            },
            {
                "_id": "5fc01f207b51d43c40324572",
                "traducciones": [
                    {
                        "tituloCorto": "weltzyklovien",
                        "titulo": "Proyecto 12"
                    }
                ],
                "adjuntos": [
                    {
                        "tipo": {
                            "codigo": "CATALB_1"
                        },
                        "portada": {
                            "_id": "5f6cb24f0dee2520a4adf62f",
                            "catalogoMedia": {
                                "codigo": "CATMED_3"
                            },
                            "traducciones": [
                                {
                                    "_id": "5f6cb24b0dee2520a4adf62b",
                                    "descripcion": "imágenes proyectos y noticias"
                                }
                            ],
                            "principal": {
                                "_id": "5f6cb24f0dee2520a4adf62d",
                                "url": "https://d3ubht94yroq8c.cloudfront.net/general/3934c22d-faaa-4add-ac20-8151abda630d.jpg ",
                                "fileDefault": true,
                                "tipo": {
                                    "codigo": "CATTIPMED_1"
                                },
                                "fechaActualizacion": "2020-09-24T14:50:55.464Z"
                            },
                            "fechaCreacion": "2020-09-24T14:50:55.477Z",
                            "fechaActualizacion": "2020-09-24T14:50:55.477Z"
                        }
                    }
                ],
                "perfil": {
                    "_id": "5f5babc6b0530486e7def538",
                    "nombreContacto": "churos",
                    "nombre": "Andre Montoya"
                },
                "fechaCreacion": "2020-10-26T21:33:22.154Z",
                "fechaActualizacion": "2020-10-26T21:33:22.142Z",
                "estado": {
                    "codigo": "EST_110"
                },
                "actualizado": false
            },
            {
                "_id": "5fc01f207b51d43c40324572",
                "traducciones": [
                    {
                        "tituloCorto": "Architettura",
                        "titulo": "Proyecto 12"
                    }
                ],
                "adjuntos": [
                    {
                        "tipo": {
                            "codigo": "CATALB_1"
                        },
                        "portada": {
                            "_id": "5f6cb24f0dee2520a4adf62f",
                            "catalogoMedia": {
                                "codigo": "CATMED_3"
                            },
                            "traducciones": [
                                {
                                    "_id": "5f6cb24b0dee2520a4adf62b",
                                    "descripcion": "imágenes proyectos y noticias"
                                }
                            ],
                            "principal": {
                                "_id": "5f6cb24f0dee2520a4adf62d",
                                "url": "https://d3ubht94yroq8c.cloudfront.net/general/1be17a54-2712-450d-a417-93b586698c98.jpg ",
                                "fileDefault": true,
                                "tipo": {
                                    "codigo": "CATTIPMED_1"
                                },
                                "fechaActualizacion": "2020-09-24T14:50:55.464Z"
                            },
                            "fechaCreacion": "2020-09-24T14:50:55.477Z",
                            "fechaActualizacion": "2020-09-24T14:50:55.477Z"
                        }
                    }
                ],
                "perfil": {
                    "_id": "5f5babc6b0530486e7def538",
                    "nombreContacto": "churos",
                    "nombre": "Andre Montoya"
                },
                "fechaCreacion": "2020-11-26T21:33:22.154Z",
                "fechaActualizacion": "2020-11-26T21:33:22.142Z",
                "estado": {
                    "codigo": "EST_110"
                },
                "actualizado": false
            }
              
        ]
    }
}