{
    "codigoEstado": 200,
    "respuesta": {
        "datos": [
            {
                "id": "5fc0fe84c26b2ca733d74016",
                "estado": {
                    "codigo": "EST_53"
                },
                "fechaCreacion": "2020-11-27T13:26:28.818Z",
                "fechaActualizacion": "2020-02-08T13:26:28.817Z",
                "adjuntos": [
                    {
                        "portada": {
                            "id": "5f6cb2c90dee2520a4adf647",
                            "catalogoMedia": {
                                "codigo": "CATMED_3"
                            },
                            "principal": {
                                "id": "5f6cb2c90dee2520a4adf645",
                                "url": "https://d3ubht94yroq8c.cloudfront.net/general/0e0bfce5-8729-4a15-933c-bc59fefe36dd.jpg",
                                "tipo": {
                                    "estado": null,
                                    "codigo": "CATTIPMED_1"
                                },
                                "fileDefault": true
                            },
                            "descripcion": "imágenes proyectos y noticias",
                            "fechaActualizacion": "2020-03-08T14:52:57.516Z"
                        },
                        "tipo": {
                            "codigo": "CATALB_1"
                        },
                        "predeterminado": true
                    }
                ],
                "perfil": {
                    "_id": "5f57a7a1e446d64158ef85f1",
                    "nombre": "Dalton Agila",
                    "nombreContacto": "dalton01"
                },
                "tituloCorto": "MONOPATTINI ELETTRICI",
                "titulo": "LanzamienTo",
                "voto": false,
                "actualizado": true
            },
            {
                "id": "5fbecf38a4c1573e40eb8a45",
                "estado": {
                    "codigo": "EST_53"
                },
                "fechaCreacion": "2020-11-25T21:40:09.256Z",
                "fechaActualizacion": "2020-09-13T21:40:09.255Z",
                "adjuntos": [
                    {
                        "portada": {
                            "id": "5f6cb28a0dee2520a4adf63b",
                            "catalogoMedia": {
                                "codigo": "CATMED_3"
                            },
                            "principal": {
                                "id": "5f6cb28a0dee2520a4adf639",
                                "url": "https://d3ubht94yroq8c.cloudfront.net/general/580dec19-8cd8-4dd4-8bb9-fd77892a7632.jpg",
                                "tipo": {
                                    "estado": null,
                                    "codigo": "CATTIPMED_1"
                                },
                                "fileDefault": true
                            },
                            "descripcion": "imágenes proyectos y noticias",
                            "fechaActualizacion": "2020-09-24T14:51:54.184Z"
                        },
                        "tipo": {
                            "codigo": "CATALB_3"
                        },
                        "predeterminado": true
                    }
                ],
                "perfil": {
                    "_id": "5f5babc6b0530486e7def538",
                    "nombre": "Andre Montoya",
                    "nombreContacto": "churos"
                },
                "tituloCorto": "COMMENT ÉVITER LES PANDÉMIES",
                "titulo": "News 12",
                "voto": false,
                "actualizado": true
            },
            {
                "id": "5fbecf32a4c1573e40eb8a3e",
                "estado": {
                    "codigo": "EST_53"
                },
                "fechaCreacion": "2020-11-25T21:40:03.212Z",
                "fechaActualizacion": "2020-10-23T21:40:03.211Z",
                "adjuntos": [
                    {
                        "portada": {
                            "id": "5f6cb2170dee2520a4adf629",
                            "catalogoMedia": {
                                "codigo": "CATMED_3"
                            },
                            "principal": {
                                "id": "5f6cb2170dee2520a4adf627",
                                "url": "https://d3ubht94yroq8c.cloudfront.net/general/5cc2cff0-ff96-446f-896f-fa6a43c758fa.jpg",
                                "tipo": {
                                    "estado": null,
                                    "codigo": "CATTIPMED_1"
                                },
                                "fileDefault": false
                            },
                            "descripcion": "imágenes proyectos y noticias",
                            "fechaActualizacion": "2020-09-24T14:49:59.032Z"
                        },
                        "tipo": {
                            "codigo": "CATALB_3"
                        },
                        "predeterminado": true
                    }
                ],
                "perfil": {
                    "_id": "5f5babc6b0530486e7def538",
                    "nombre": "Andre Montoya",
                    "nombreContacto": "churos"
                },
                "tituloCorto": "APP PER MAPPARE IL VERDE",
                "titulo": "News 11",
                "voto": true,
                "actualizado": true
            },
            {
                "id": "5fbecf2ca4c1573e40eb8a37",
                "estado": {
                    "codigo": "EST_53"
                },
                "fechaCreacion": "2020-11-25T21:39:57.191Z",
                "fechaActualizacion": "2020-11-25T21:39:57.189Z",
                "adjuntos": [
                    {
                        "portada": {
                            "id": "5f6cb2f50dee2520a4adf653",
                            "catalogoMedia": {
                                "codigo": "CATMED_3"
                            },
                            "principal": {
                                "id": "5f6cb2f50dee2520a4adf651",
                                "url": "https://d3ubht94yroq8c.cloudfront.net/recursos-sistema/fondos/portada-gaze-completa.png",
                                "tipo": {
                                    "estado": null,
                                    "codigo": "CATTIPMED_1"
                                },
                                "fileDefault": true
                            },
                            "descripcion": "imágenes proyectos y noticias",
                            "fechaActualizacion": "2020-09-24T14:53:41.363Z"
                        },
                        "tipo": {
                            "codigo": "CATALB_1"
                        },
                        "predeterminado": true
                    }
                ],
                "perfil": {
                    "_id": "5f5babc6b0530486e7def538",
                    "nombre": "Andre Montoya",
                    "nombreContacto": "churos"
                },
                "tituloCorto": "NEWS NOT AVAILABLE",
                "titulo": "News 10",
                "voto": false,
                "actualizado": true
            },
            {
                "id": "5fbecf24a4c1573e40eb8a30",
                "estado": {
                    "codigo": "EST_53"
                },
                "fechaCreacion": "2020-11-25T21:39:48.893Z",
                "fechaActualizacion": "2020-01-09T21:39:48.892Z",
                "adjuntos": [
                    {
                        "portada": {
                            "id": "5f6cb2e40dee2520a4adf64d",
                            "catalogoMedia": {
                                "codigo": "CATMED_3"
                            },
                            "principal": {
                                "id": "5f6cb2e40dee2520a4adf64b",
                                "url": "https://d3ubht94yroq8c.cloudfront.net/general/9094ad6f-3072-4157-ad76-4b09c71ef912.jpg",
                                "tipo": {
                                    "estado": null,
                                    "codigo": "CATTIPMED_1"
                                },
                                "fileDefault": false
                            },
                            "descripcion": "imágenes proyectos y noticias",
                            "fechaActualizacion": "2020-09-24T14:53:24.761Z"
                        },
                        "tipo": {
                            "codigo": "CATALB_1"
                        },
                        "predeterminado": true
                    }
                ],
                "perfil": {
                    "_id": "5f5babc6b0530486e7def538",
                    "nombre": "Andre Montoya",
                    "nombreContacto": "churos"
                },
                "tituloCorto": "JAPAN FLYING VEHICLE",
                "titulo": "News 9",
                "voto": false,
                "actualizado": true
            },
            {
                "id": "5fbecf1da4c1573e40eb8a29",
                "estado": {
                    "codigo": "EST_53"
                },
                "fechaCreacion": "2020-11-25T21:39:42.077Z",
                "fechaActualizacion": "2020-10-19T21:39:42.074Z",
                "adjuntos": [
                    {
                        "portada": {
                            "id": "5f6cb3830dee2520a4adf67d",
                            "catalogoMedia": {
                                "codigo": "CATMED_3"
                            },
                            "principal": {
                                "id": "5f6cb3830dee2520a4adf67b",
                                "url": "https://d3ubht94yroq8c.cloudfront.net/general/c5a14fdb-417e-458b-adf6-198ec095c34d.jpg",
                                "tipo": {
                                    "estado": null,
                                    "codigo": "CATTIPMED_1"
                                },
                                "fileDefault": true
                            },
                            "descripcion": "imágenes proyectos y noticias",
                            "fechaActualizacion": "2020-09-24T14:50:55.477Z"
                        },
                        "tipo": {
                            "codigo": "CATALB_1"
                        },
                        "predeterminado": true
                    }
                ],
                "perfil": {
                    "_id": "5f5babc6b0530486e7def538",
                    "nombre": "Andre Montoya",
                    "nombreContacto": "churos"
                },
                "tituloCorto": "SOLARENERGIE-MINIATURPLATTEN",
                "titulo": "News 8",
                "voto": false,
                "actualizado": true
            },
            {
                "id": "5fbecf13a4c1573e40eb8a22",
                "estado": {
                    "codigo": "EST_53"
                },
                "fechaCreacion": "2020-11-25T21:39:32.137Z",
                "fechaActualizacion": "2020-09-25T21:39:32.135Z",
                "adjuntos": [
                    {
                        "portada": {
                            "id": "5f6cb24f0dee2520a4adf62f",
                            "catalogoMedia": {
                                "codigo": "CATMED_3"
                            },
                            "principal": {
                                "id": "5f6cb24f0dee2520a4adf62d",
                                "url": "https://d3ubht94yroq8c.cloudfront.net/general/90b2a4de-fdb7-48c8-9fbe-59e80c179d9f.jpg",
                                "tipo": {
                                    "estado": null,
                                    "codigo": "CATTIPMED_1"
                                },
                                "fileDefault": true
                            },
                            "descripcion": "imágenes proyectos y noticias",
                            "fechaActualizacion": "2020-09-24T14:50:55.477Z"
                        },
                        "tipo": {
                            "codigo": "CATALB_1"
                        },
                        "predeterminado": true
                    }
                ],
                "perfil": {
                    "_id": "5f5babc6b0530486e7def538",
                    "nombre": "Andre Montoya",
                    "nombreContacto": "churos"
                },
                "tituloCorto": "LA FEMME MALTRAITÉE ",
                "titulo": "News 7",
                "voto": false,
                "actualizado": true
            },
            {
                "id": "5fbecf0ca4c1573e40eb8a1b",
                "estado": {
                    "codigo": "EST_53"
                },
                "fechaCreacion": "2020-11-25T21:39:25.158Z",
                "fechaActualizacion": "2020-10-19T21:39:25.157Z",
                "adjuntos": [
                    {
                        "portada": {
                            "id": "5f6cb32a0dee2520a4adf65f",
                            "catalogoMedia": {
                                "codigo": "CATMED_3"
                            },
                            "principal": {
                                "id": "5f6cb32a0dee2520a4adf65d",
                                "url": "https://d3ubht94yroq8c.cloudfront.net/general/de206374-5f9b-40ba-be52-f41fb2d75e20.jpg",
                                "tipo": {
                                    "estado": null,
                                    "codigo": "CATTIPMED_1"
                                },
                                "fileDefault": true
                            },
                            "descripcion": "imágenes proyectos y noticias",
                            "fechaActualizacion": "2020-09-24T14:54:34.477Z"
                        },
                        "tipo": {
                            "codigo": "CATALB_1"
                        },
                        "predeterminado": true
                    }
                ],
                "perfil": {
                    "_id": "5f5babc6b0530486e7def538",
                    "nombre": "Andre Montoya",
                    "nombreContacto": "churos"
                },
                "tituloCorto": "OBESIDADE NO BRASIL",
                "titulo": "News 6",
                "voto": false,
                "actualizado": true
            },
            {
                "id": "5fbecf06a4c1573e40eb8a14",
                "estado": {
                    "codigo": "EST_53"
                },
                "fechaCreacion": "2020-11-25T21:39:18.801Z",
                "fechaActualizacion": "2020-10-27T21:39:18.799Z",
                "adjuntos": [
                    {
                        "portada": {
                            "id": "5f6cb1c50dee2520a4adf611",
                            "catalogoMedia": {
                                "codigo": "CATMED_3"
                            },
                            "principal": {
                                "id": "5f6cb1c50dee2520a4adf60f",
                                "url": "https://d3ubht94yroq8c.cloudfront.net/general/e9dc10c2-4797-49f1-91e1-8eb3c81b3169.jpg",
                                "tipo": {
                                    "estado": null,
                                    "codigo": "CATTIPMED_1"
                                },
                                "fileDefault": true
                            },
                            "descripcion": "imágenes proyectos y noticias",
                            "fechaActualizacion": "2020-09-24T14:48:37.425Z"
                        },
                        "tipo": {
                            "codigo": "CATALB_1"
                        },
                        "predeterminado": true
                    }
                ],
                "perfil": {
                    "_id": "5f5babc6b0530486e7def538",
                    "nombre": "Andre Montoya",
                    "nombreContacto": "churos"
                },
                "tituloCorto": "UNA SOLUCIÓN AGUAS SERVIDAS",
                "titulo": "News 5",
                "voto": false,
                "actualizado": true
            },
            {
                "id": "5fbecf00a4c1573e40eb8a0d",
                "estado": {
                    "codigo": "EST_53"
                },
                "fechaCreacion": "2020-11-25T21:39:12.682Z",
                "fechaActualizacion": "2020-11-25T21:39:12.681Z",
                "adjuntos": [
                    {
                        "portada": {
                            "id": "5f6cb1940dee2520a4adf5ff",
                            "catalogoMedia": {
                                "codigo": "CATMED_3"
                            },
                            "principal": {
                                "id": "5f6cb1940dee2520a4adf5fd",
                                "url": "https://d3ubht94yroq8c.cloudfront.net/general/4b81a160-6cbc-432d-a69d-0efa19461c01.jpg",
                                "tipo": {
                                    "estado": null,
                                    "codigo": "CATTIPMED_1"
                                },
                                "fileDefault": true
                            },
                            "descripcion": "imágenes proyectos y noticias",
                            "fechaActualizacion": "2020-09-24T14:47:48.667Z"
                        },
                        "tipo": {
                            "codigo": "CATALB_1"
                        },
                        "predeterminado": true
                    }
                ],
                "perfil": {
                    "_id": "5f5babc6b0530486e7def538",
                    "nombre": "Andre Montoya",
                    "nombreContacto": "churos"
                },
                "tituloCorto": "KATASTROPHALE IN LANDWIRTSCHAFT",
                "titulo": "News 4",
                "voto": false,
                "actualizado": true
            }
        ]
    }
}