{
    "codigoEstado": 200,
    "respuesta": {
        "datos": {
            "_id": "5fc0fe84c26b2ca733d74016",
            "traducciones": [
                {
                    "tituloCorto": "THE SAND DISAPPEARS", 
                    "titulo": "SANDS SUBSTITUTES TO SAVE OUR ECOSYSTEM",
                    "descripcion": "Lorem iut laoreet dilisisut laoreet dolore magna aliquam erat volutpat. Ut wisi enim ad minim veniam, quis nostrud exerci tation ullamcorper suscipit lo sit amet, consectetuer adipaliquam erat volutpat. Ut wisi ebortis nisl ut aliquip ex",
                    "tags": []
                }
            ],
            "adjuntos": [],
            "medias": [],
            "totalVotos": 0,
            "tipo": {
                "codigo": "CAT_TIPO_PROY_04"
            },
            "perfil": {
                "_id": "333",
                "nombreContacto": "LEE JOHNSON",
                "nombre": "LEE JOHNSON"
            },
            "direccion": {
                "_id": "5fc0fe84c26b2ca733d74019",
                "descripcion": "",
                "localidad": {
                    "codigo": "001",
                    "codigoPostal": "0003",
                    "nombre": "SIDNEY 2025",
                    "catalogoPais": {
                        "codigo": "002",
                        "traducciones": [
                            {
                                "nombre": "AUSTRALIA"
                            }
                        ]
                    }
                }
            },
            "fechaCreacion": "2020-07-01T13:26:28.818Z",
            "fechaActualizacion": "2020-07-01T13:26:28.817Z",
            "estado": {
                "codigo": "EST_53"
            },
            "actualizado": false,
            "voto": false
        }
    }
}